<svg width="120" height="92" viewBox="0 0 120 92" fill="none" xmlns="http://www.w3.org/2000/svg">
<path d="M77.3694 5.25741H7.06956C3.7313 5.25741 1 7.98871 1 11.327V84.9304C1 88.2687 3.7313 91 7.06956 91H112.235C115.573 91 118.304 88.2687 118.304 84.9304V29.9403" stroke="#6B8857" stroke-width="2" stroke-miterlimit="10" stroke-linejoin="round"/>
<path d="M24.7522 90.9399V5.33896" stroke="#6B8857" stroke-width="2" stroke-miterlimit="10" stroke-linejoin="round"/>
<path d="M13.2605 52.6196V43.6569" stroke="#6B8857" stroke-width="2" stroke-miterlimit="10" stroke-linecap="round" stroke-linejoin="round"/>
<path d="M35.7131 52.5239H68.0936" stroke="#6B8857" stroke-width="2" stroke-miterlimit="10" stroke-linecap="round" stroke-linejoin="round"/>
<path d="M35.7131 63.2866H68.0936" stroke="#6B8857" stroke-width="2" stroke-miterlimit="10" stroke-linecap="round" stroke-linejoin="round"/>
<path d="M72.9663 76.377H93.7361" stroke="#6B8857" stroke-width="2" stroke-miterlimit="10" stroke-linecap="round" stroke-linejoin="round"/>
<path d="M99.0865 52.2774L115.878 11.2929C117.158 8.14739 115.647 4.53927 112.501 3.24405L108.138 1.45541C104.992 0.175605 101.384 1.68671 100.089 4.81682L83.2971 45.8013L85.9492 61.6061L99.0865 52.2774Z" stroke="#6B8857" stroke-width="2" stroke-miterlimit="10" stroke-linecap="round" stroke-linejoin="round"/>
<path d="M85.9188 61.606L83.9297 66.4476" stroke="#6B8857" stroke-width="2" stroke-miterlimit="10" stroke-linecap="round" stroke-linejoin="round"/>
<path d="M84.9006 43.7202L99.4102 49.6721" stroke="#6B8857" stroke-width="2" stroke-miterlimit="10" stroke-linecap="round" stroke-linejoin="round"/>
<path d="M111.915 20.6365L86.7659 10.3364" stroke="#6B8857" stroke-width="2" stroke-miterlimit="10" stroke-linejoin="round"/>
<path d="M88.6939 4.4624L81.3389 22.395" stroke="#6B8857" stroke-width="2" stroke-miterlimit="10" stroke-linecap="round" stroke-linejoin="round"/>
</svg>
