<svg width="68" height="67" viewBox="0 0 68 67" fill="none" xmlns="http://www.w3.org/2000/svg">
<path d="M35.4714 2.94267C44.9904 2.94267 52.707 17.0585 52.707 34.4713C52.707 51.8841 44.9904 66 35.4714 66C25.9524 66 18.2357 51.8841 18.2357 34.4713C18.2357 24.6466 20.6923 15.8714 24.5432 10.0892" stroke="#333333"/>
<path d="M38.8344 0L35.4713 2.94268L37.9936 6.72611" stroke="#333333"/>
<path d="M3.94267 34.4714C3.94267 24.9524 18.0585 17.2357 35.4713 17.2357C52.8841 17.2357 67 24.9524 67 34.4714C67 43.9904 52.8841 51.7071 35.4713 51.7071C25.6466 51.7071 16.8714 49.2505 11.0892 45.3996" stroke="#333333"/>
<path d="M1 31.5287L3.94268 34.8917L7.72611 32.3694" stroke="#333333"/>
</svg>
